[
  "sousse.recrutement@leoni.com",
  "grh@poulina.com.tn",
  "grh@sna.com.tn",
  "marketing@sna.com.tn",
  "recrutement@itserv.tn",
  "recrutement@servi.com.tn",
  "faten.aloui@servi.com.tn",
  "contact@servi.com.tn",
  "job.sitem@somfy.com",
  "jobs@cynapsys.de",
  "recrutement@owliance.com",
  "recruit@focus-corporation.com",
  "cvtn@keyrus.com",
  "recrutement@ozeol.com",
  "recrutement@uib.com.tn",
  "recrutement@servi.com.tn",
  "contact@progressrh.com",
  "info@ahktunis.org",
  "recrutement@medianet.com.tn",
  "recrutement@imh-groupe.com",
  "zakariakhllifi@gmail.com"
]