[
  {
    "quote_id": 159,
    "fullname": "Zied Garbouj",
    "email": "garboujzied7@gmail.com",
    "country": null,
    "phone": "+21623508893",
    "service": "Edition de manuscrit de thèse",
    "subject": "Theory of operators",
    "limitdate": "2020-10-05 00:00:00",
    "file": "files/wqsDHwtyhqLTGJ2963nF.pdf",
    "instructions": null,
    "status": "Completed",
    "created_at": "2019-06-30 09:41:09",
    "updated_at": null
  },
  {
    "quote_id": 160,
    "fullname": "fatma khalfallah",
    "email": "khalfallah.fatma@gmail.com",
    "country": null,
    "phone": "97494575",
    "service": "Academic Editing",
    "subject": "translate",
    "limitdate": "2019-07-09 00:00:00",
    "file": "files/mMHcAVwSEnXG5B1WeioL.docx",
    "instructions": null,
    "status": "Completed",
    "created_at": "2019-07-01 12:03:16",
    "updated_at": null
  },
  {
    "quote_id": 161,
    "fullname": "fatma khalfallah",
    "email": "khalfallah.fatma@gmail.com",
    "country": null,
    "phone": "97494575",
    "service": "Academic Editing",
    "subject": "correction",
    "limitdate": "2019-07-08 00:00:00",
    "file": "files/8au8bpHIsSZmz71rvE5M.docx",
    "instructions": null,
    "status": "Completed",
    "created_at": "2019-07-01 12:04:35",
    "updated_at": null
  },
  {
    "quote_id": 162,
    "fullname": "wissem gallala",
    "email": "wissem.gallala@fsg.rnu.tn",
    "country": null,
    "phone": "22874565",
    "service": "Academic Editing",
    "subject": "paper",
    "limitdate": "2019-07-04 00:00:00",
    "file": "files/584PWYUaQ7YbDd6Vvi6z.doc",
    "instructions": "http://editing.tn/quote",
    "status": "Completed",
    "created_at": "2019-07-02 10:08:39",
    "updated_at": null
  },
  {
    "quote_id": 163,
    "fullname": "riadh ayachi",
    "email": "riadh.ayachi@yahoo.fr",
    "country": null,
    "phone": "+21692911123",
    "service": "Academic Editing",
    "subject": "paper proof reading",
    "limitdate": "2019-10-07 00:00:00",
    "file": "files/K6S72y55Es2gUKeuFN5O.docx",
    "instructions": null,
    "status": "Completed",
    "created_at": "2019-07-03 08:58:12",
    "updated_at": null
  },
  {
    "quote_id": 164,
    "fullname": "Moez",
    "email": "gtarimoez@Yahoo.fr",
    "country": null,
    "phone": "+21698516218",
    "service": "Academic Editing",
    "subject": "HDR",
    "limitdate": "2019-07-08 00:00:00",
    "file": "files/WaxU2bmZm4ebZZbEGEmx.pdf",
    "instructions": null,
    "status": "Completed",
    "created_at": "2019-07-06 09:00:13",
    "updated_at": null
  },
  {
    "quote_id": 165,
    "fullname": "fattouma",
    "email": "belkhiriafatma86@gmail.com",
    "country": null,
    "phone": "53884993",
    "service": "Academic Editing",
    "subject": "article",
    "limitdate": "2019-07-18 00:00:00",
    "file": "files/86oHttmZTdvvaE3mVl7I.docx",
    "instructions": null,
    "status": "Completed",
    "created_at": "2019-07-12 09:45:45",
    "updated_at": null
  },
  {
    "quote_id": 166,
    "fullname": "abdelhamid helali",
    "email": "hel_hamid@yahoo.fr",
    "country": null,
    "phone": "97256761",
    "service": "Academic Editing",
    "subject": "scientific paper",
    "limitdate": "2019-08-05 00:00:00",
    "file": "files/9i8cftLnWpAMOwm3ZQwA.docx",
    "instructions": "Grammar checking ,     Spelling checking,     Vocabulary checking,     Sentence checking\r\nplease put the corrections with another color",
    "status": "Completed",
    "created_at": "2019-07-25 10:36:17",
    "updated_at": null
  },
  {
    "quote_id": 167,
    "fullname": "imen FGUIRI",
    "email": "imen.fguiri@yahoo.com",
    "country": null,
    "phone": "21652000128",
    "service": "Academic Editing",
    "subject": "article correction",
    "limitdate": "2019-08-10 00:00:00",
    "file": "files/85TkopSsYnorEmQhX2qU.docx",
    "instructions": null,
    "status": "Completed",
    "created_at": "2019-08-01 08:25:34",
    "updated_at": null
  },
  {
    "quote_id": 168,
    "fullname": "Moez Guettari",
    "email": "gtarimoez@Yahoo.fr",
    "country": null,
    "phone": "98516218",
    "service": "Academic Editing",
    "subject": "Plagirism",
    "limitdate": "2019-08-05 00:00:00",
    "file": "files/TcbMHD8oOu64r3zmC38y.pdf",
    "instructions": null,
    "status": "Completed",
    "created_at": "2019-08-03 15:52:59",
    "updated_at": null
  },
  {
    "quote_id": 169,
    "fullname": "MUTRAX",
    "email": "sibawaih2001@gmail.com",
    "country": null,
    "phone": "0658127085",
    "service": "Academic Editing",
    "subject": "Football",
    "limitdate": "2019-09-05 00:00:00",
    "file": "files/TlAqr2OWfwqXREwDajGs.jpg",
    "instructions": null,
    "status": "Completed",
    "created_at": "2019-08-07 09:46:29",
    "updated_at": null
  },
  {
    "quote_id": 170,
    "fullname": "Enneb Sameh",
    "email": "enneb_sameh@yahoo.fr",
    "country": null,
    "phone": "97680450",
    "service": "Academic Editing",
    "subject": "scientific paper",
    "limitdate": "2019-08-09 00:00:00",
    "file": "files/fo49Yi9ai8yW7x7WINr7.docx",
    "instructions": "Grammar checking\r\nSpelling checking\r\nVocabulary checking\r\nSentence checking",
    "status": "Completed",
    "created_at": "2019-08-07 20:46:58",
    "updated_at": null
  },
  {
    "quote_id": 171,
    "fullname": "Zied Garbouj",
    "email": "garboujzied7@gmail.com",
    "country": null,
    "phone": "23508893",
    "service": "PhD Manuscript Editing",
    "subject": "Choix de journal",
    "limitdate": "2019-09-03 00:00:00",
    "file": "files/CFMAdXtr1pIW6GFh0UUp.pdf",
    "instructions": null,
    "status": "Completed",
    "created_at": "2019-08-17 08:45:01",
    "updated_at": null
  },
  {
    "quote_id": 172,
    "fullname": "riadh ayachi",
    "email": "riadhayachi@yahoo.fr",
    "country": null,
    "phone": "92911123",
    "service": "PhD Manuscript Editing",
    "subject": "image processing and object detection",
    "limitdate": "2019-08-24 00:00:00",
    "file": "files/GELYfRYESbbI8MYg2oZH.docx",
    "instructions": null,
    "status": "Completed",
    "created_at": "2019-08-22 19:12:07",
    "updated_at": null
  },
  {
    "quote_id": 173,
    "fullname": "Meriem Ameur",
    "email": "meriem_ameur@yahoo.fr",
    "country": null,
    "phone": "21112720",
    "service": "Academic Editing",
    "subject": "Groundwater",
    "limitdate": "2019-09-06 00:00:00",
    "file": "files/AjfY500TrPv2uDkDqd1M.docx",
    "instructions": null,
    "status": "Completed",
    "created_at": "2019-09-02 09:09:22",
    "updated_at": null
  },
  {
    "quote_id": 174,
    "fullname": "Maher Kharrat",
    "email": "maher.kharrat@fmt.utm.tn",
    "country": null,
    "phone": "98516920",
    "service": "Academic Editing",
    "subject": "editing of scientific article",
    "limitdate": "2019-09-11 00:00:00",
    "file": "files/yDKgjIRODLOHQmtHUGyW.docx",
    "instructions": "Grammar, conjugation, sentence structure, form... checking",
    "status": "Completed",
    "created_at": "2019-09-09 14:52:05",
    "updated_at": null
  },
  {
    "quote_id": 175,
    "fullname": "ines ben hassine",
    "email": "ines.benhassine@yahoo.fr",
    "country": null,
    "phone": "73644788",
    "service": "Academic Editing",
    "subject": "article",
    "limitdate": "2019-09-15 00:00:00",
    "file": "files/3JgAozRHh8MNddphIvVd.docx",
    "instructions": null,
    "status": "Completed",
    "created_at": "2019-09-13 16:07:24",
    "updated_at": null
  },
  {
    "quote_id": 176,
    "fullname": "sarra haddad",
    "email": "sarra_haddad70@yahoo.fr",
    "country": null,
    "phone": "53413689",
    "service": "Plagiarism Report",
    "subject": "oil price dynamics",
    "limitdate": "2019-09-16 00:00:00",
    "file": "files/DG4rk0NiPVC5EXYNPARX.pdf",
    "instructions": null,
    "status": "Completed",
    "created_at": "2019-09-16 20:04:04",
    "updated_at": null
  },
  {
    "quote_id": 177,
    "fullname": "KABTNI Souhir",
    "email": "souhir.kabtni@fst.utm.tn",
    "country": null,
    "phone": "+21621126766",
    "service": "PhD Manuscript Editing",
    "subject": "phytochemistry",
    "limitdate": "2019-10-04 00:00:00",
    "file": "files/YwoQoLCxbs5Et7VqFT5e.docx",
    "instructions": "Please revise the manuscript with proper use of English grammar when your writing a scientific article. Avoid the use of the following phrases/words: spectacular, in fact.",
    "status": "Completed",
    "created_at": "2019-09-24 10:10:07",
    "updated_at": null
  },
  {
    "quote_id": 178,
    "fullname": "ben hmouda mayssa",
    "email": "benhamoudamayssa.biotech@gmail.com",
    "country": null,
    "phone": "20910770",
    "service": "Plagiarism Report",
    "subject": "plagiat du partie biblio de mémoire",
    "limitdate": "2019-10-06 00:00:00",
    "file": "files/dGaTDKcxvl55qGXrnp9G.docx",
    "instructions": null,
    "status": "Completed",
    "created_at": "2019-09-29 18:58:59",
    "updated_at": null
  },
  {
    "quote_id": 179,
    "fullname": "الظاهري صبرين",
    "email": "sabrinedhahri1991@gmail.com",
    "country": null,
    "phone": "23763583",
    "service": "Academic Editing",
    "subject": "economics",
    "limitdate": "2019-10-31 00:00:00",
    "file": "files/lnzGuxjUhqY0RG2rmJ1W.pdf",
    "instructions": null,
    "status": "Completed",
    "created_at": "2019-10-09 23:10:10",
    "updated_at": null
  },
  {
    "quote_id": 180,
    "fullname": "rim zarrouk hochlef",
    "email": "rima.zarrouk@gmail.com",
    "country": null,
    "phone": "+21655491721",
    "service": "Pedagogic Editing (For Students)",
    "subject": "computer science",
    "limitdate": "2019-10-20 00:00:00",
    "file": "files/JaNc5uqDBCLjMsJKFXQ3.pdf",
    "instructions": null,
    "status": "Completed",
    "created_at": "2019-10-14 12:09:54",
    "updated_at": null
  },
  {
    "quote_id": 181,
    "fullname": "ritaj",
    "email": "ritaj4102@gmail.com",
    "country": null,
    "phone": "+212634088471",
    "service": "Academic Editing",
    "subject": "PFE",
    "limitdate": "2019-10-24 00:00:00",
    "file": "files/M2qcUkUaWfP2TBPXieNz.docx",
    "instructions": "plagiat",
    "status": "Completed",
    "created_at": "2019-10-24 20:21:15",
    "updated_at": null
  },
  {
    "quote_id": 182,
    "fullname": "Hamza Ben Krid",
    "email": "krid509@gmail.com",
    "country": null,
    "phone": "54480308",
    "service": "Academic Editing",
    "subject": "Reconfigurable Graphene Annular Ring Antenna for Medical and Imaging Applications",
    "limitdate": "2019-10-28 00:00:00",
    "file": "files/ObWO57L0xAlNAea7qoGz.docx",
    "instructions": null,
    "status": "Completed",
    "created_at": "2019-10-25 13:55:08",
    "updated_at": null
  },
  {
    "quote_id": 183,
    "fullname": "islem ziadi",
    "email": "Ziadiislem@gmail.com",
    "country": null,
    "phone": "21877292",
    "service": "PhD Manuscript Editing",
    "subject": "publication",
    "limitdate": "2019-11-07 00:00:00",
    "file": "files/X71PlyKbp41NrdB7kJlG.docx",
    "instructions": null,
    "status": "Completed",
    "created_at": "2019-10-29 20:48:01",
    "updated_at": null
  }
  ]